-- Merging decision tree log ---
manifest
ADDED from /home/vishal/monatv/android/app/src/main/AndroidManifest.xml:1:1-63:12
INJECTED from /home/vishal/monatv/android/app/src/main/AndroidManifest.xml:1:1-63:12
INJECTED from /home/vishal/monatv/android/app/src/main/AndroidManifest.xml:1:1-63:12
INJECTED from /home/vishal/monatv/android/app/src/main/AndroidManifest.xml:1:1-63:12
MERGED from /home/vishal/monatv/android/app/src/main/AndroidManifest.xml:1:1-63:12
MERGED from [com.facebook.flipper:flipper:0.125.0] /home/vishal/.gradle/caches/transforms-3/03f04a3f11198ce3b7c6cedb9b41266b/transformed/jetified-flipper-0.125.0/AndroidManifest.xml:8:1-18:12
MERGED from [com.facebook.flipper:flipper-network-plugin:0.125.0] /home/vishal/.gradle/caches/transforms-3/e32b7eeb3398efff4e100fae60e161ae/transformed/jetified-flipper-network-plugin-0.125.0/AndroidManifest.xml:8:1-15:12
MERGED from [com.facebook.flipper:flipper-fresco-plugin:0.125.0] /home/vishal/.gradle/caches/transforms-3/d00cb5af49214c127447117a850c65b4/transformed/jetified-flipper-fresco-plugin-0.125.0/AndroidManifest.xml:8:1-15:12
MERGED from [:react-native-async-storage_async-storage] /home/vishal/monatv/node_modules/@react-native-async-storage/async-storage/android/build/intermediates/merged_manifest/debug/AndroidManifest.xml:2:1-9:12
MERGED from [:react-native-blob-util] /home/vishal/monatv/node_modules/react-native-blob-util/android/build/intermediates/merged_manifest/debug/AndroidManifest.xml:2:1-48:12
MERGED from [:react-native-device-info] /home/vishal/monatv/node_modules/react-native-device-info/android/build/intermediates/merged_manifest/debug/AndroidManifest.xml:2:1-9:12
MERGED from [:react-native-fs] /home/vishal/monatv/node_modules/react-native-fs/android/build/intermediates/merged_manifest/debug/AndroidManifest.xml:2:1-11:12
MERGED from [:react-native-gesture-handler] /home/vishal/monatv/node_modules/react-native-gesture-handler/android/build/intermediates/merged_manifest/debug/AndroidManifest.xml:2:1-9:12
MERGED from [:react-native-safe-area-context] /home/vishal/monatv/node_modules/react-native-safe-area-context/android/build/intermediates/merged_manifest/debug/AndroidManifest.xml:2:1-9:12
MERGED from [:react-native-screens] /home/vishal/monatv/node_modules/react-native-screens/android/build/intermediates/merged_manifest/debug/AndroidManifest.xml:2:1-9:12
MERGED from [:react-native-splash-screen] /home/vishal/monatv/node_modules/react-native-splash-screen/android/build/intermediates/merged_manifest/debug/AndroidManifest.xml:2:1-9:12
MERGED from [:react-native-vector-icons] /home/vishal/monatv/node_modules/react-native-vector-icons/android/build/intermediates/merged_manifest/debug/AndroidManifest.xml:2:1-9:12
MERGED from [:react-native-video] /home/vishal/monatv/node_modules/react-native-video/android/build/intermediates/merged_manifest/debug/AndroidManifest.xml:2:1-9:12
MERGED from [com.facebook.react:react-native:0.70.2] /home/vishal/.gradle/caches/transforms-3/790d0e301814aa39d1ebcac266155cf1/transformed/jetified-react-native-0.70.2-debug/AndroidManifest.xml:2:1-11:12
MERGED from [androidx.swiperefreshlayout:swiperefreshlayout:1.0.0] /home/vishal/.gradle/caches/transforms-3/4aa3daa4c119e5ebf154ad11d072f485/transformed/swiperefreshlayout-1.0.0/AndroidManifest.xml:17:1-22:12
MERGED from [com.facebook.react:hermes-engine:0.70.2] /home/vishal/.gradle/caches/transforms-3/2b865d476676e9439292fd1bc9932a11/transformed/jetified-hermes-engine-0.70.2-debug/AndroidManifest.xml:2:1-9:12
MERGED from [com.facebook.fresco:flipper:2.6.0] /home/vishal/.gradle/caches/transforms-3/254be36e6f6eb176e072fd687d368667/transformed/jetified-flipper-2.6.0/AndroidManifest.xml:2:1-9:12
MERGED from [com.facebook.fresco:stetho:2.6.0] /home/vishal/.gradle/caches/transforms-3/e90babe485946eeebe0b18572938e7fb/transformed/jetified-stetho-2.6.0/AndroidManifest.xml:2:1-9:12
MERGED from [com.facebook.fresco:fresco:2.6.0] /home/vishal/.gradle/caches/transforms-3/6bf0185b9b85a5b617e433ea49b9063b/transformed/jetified-fresco-2.6.0/AndroidManifest.xml:2:1-9:12
MERGED from [com.facebook.fresco:soloader:2.6.0] /home/vishal/.gradle/caches/transforms-3/9a33d8868af3aea4332afd8d8efc6348/transformed/jetified-soloader-2.6.0/AndroidManifest.xml:2:1-9:12
MERGED from [com.facebook.fresco:imagepipeline-okhttp3:2.5.0] /home/vishal/.gradle/caches/transforms-3/22d07d704840d6ac26d9e3ea7e6138f8/transformed/jetified-imagepipeline-okhttp3-2.5.0/AndroidManifest.xml:2:1-9:12
MERGED from [com.facebook.fresco:drawee:2.6.0] /home/vishal/.gradle/caches/transforms-3/8fac770e659683206d28c35b067abb41/transformed/jetified-drawee-2.6.0/AndroidManifest.xml:2:1-9:12
MERGED from [com.facebook.fresco:nativeimagefilters:2.6.0] /home/vishal/.gradle/caches/transforms-3/fcf5922547be963eb521befd316515e0/transformed/jetified-nativeimagefilters-2.6.0/AndroidManifest.xml:2:1-9:12
MERGED from [com.facebook.fresco:memory-type-native:2.6.0] /home/vishal/.gradle/caches/transforms-3/067e91612de0a20035490a44ac8dc3c7/transformed/jetified-memory-type-native-2.6.0/AndroidManifest.xml:2:1-9:12
MERGED from [com.facebook.fresco:memory-type-java:2.6.0] /home/vishal/.gradle/caches/transforms-3/b4c05aa9a6cbb25b1c515185d2c85583/transformed/jetified-memory-type-java-2.6.0/AndroidManifest.xml:2:1-9:12
MERGED from [com.facebook.fresco:imagepipeline-native:2.6.0] /home/vishal/.gradle/caches/transforms-3/e9cfcf9cad320d2caa4d9a333e6e6c64/transformed/jetified-imagepipeline-native-2.6.0/AndroidManifest.xml:2:1-9:12
MERGED from [com.facebook.soloader:soloader:0.10.4] /home/vishal/.gradle/caches/transforms-3/87826452408345e9fcde9828ee0fb34c/transformed/jetified-soloader-0.10.4/AndroidManifest.xml:2:1-13:12
MERGED from [com.facebook.fresco:memory-type-ashmem:2.6.0] /home/vishal/.gradle/caches/transforms-3/7bcdddc034b6a41f9f59e18f82d27a2a/transformed/jetified-memory-type-ashmem-2.6.0/AndroidManifest.xml:2:1-9:12
MERGED from [com.facebook.fresco:imagepipeline:2.6.0] /home/vishal/.gradle/caches/transforms-3/f12e9d58f545dc528f5c5d303fc2b907/transformed/jetified-imagepipeline-2.6.0/AndroidManifest.xml:2:1-9:12
MERGED from [com.facebook.fresco:nativeimagetranscoder:2.6.0] /home/vishal/.gradle/caches/transforms-3/72898a632139019e38bc9fa5121bc1f7/transformed/jetified-nativeimagetranscoder-2.6.0/AndroidManifest.xml:2:1-9:12
MERGED from [com.facebook.fresco:imagepipeline-base:2.6.0] /home/vishal/.gradle/caches/transforms-3/1d1edd6ff4f1a69fd6c2a9b7b9361b66/transformed/jetified-imagepipeline-base-2.6.0/AndroidManifest.xml:2:1-9:12
MERGED from [com.google.android.material:material:1.1.0] /home/vishal/.gradle/caches/transforms-3/ff7f9e1ea9c2e709fffb9e018f2252cf/transformed/material-1.1.0/AndroidManifest.xml:17:1-24:12
MERGED from [com.github.adityaxjha:Android-ScalableVideoView:10e7b4da8b] /home/vishal/.gradle/caches/transforms-3/f83bbd89bc36ef940c4b627af7bf4a87/transformed/jetified-Android-ScalableVideoView-10e7b4da8b/AndroidManifest.xml:2:1-9:12
MERGED from [androidx.appcompat:appcompat:1.4.1] /home/vishal/.gradle/caches/transforms-3/1b40e4574e76bff5831ef4bf4270480d/transformed/appcompat-1.4.1/AndroidManifest.xml:17:1-24:12
MERGED from [androidx.sqlite:sqlite-framework:2.1.0] /home/vishal/.gradle/caches/transforms-3/7aa95ea95f7888771eaaf73aa7600b26/transformed/sqlite-framework-2.1.0/AndroidManifest.xml:17:1-24:12
MERGED from [androidx.appcompat:appcompat-resources:1.4.1] /home/vishal/.gradle/caches/transforms-3/25ca79b7ef1a689e48a9ba2099d7ac89/transformed/jetified-appcompat-resources-1.4.1/AndroidManifest.xml:17:1-24:12
MERGED from [androidx.autofill:autofill:1.1.0] /home/vishal/.gradle/caches/transforms-3/a6ec09d3f9a35c2cdb66c074ce2dc724/transformed/jetified-autofill-1.1.0/AndroidManifest.xml:17:1-24:12
MERGED from [com.facebook.fresco:middleware:2.6.0] /home/vishal/.gradle/caches/transforms-3/1e511b444fe8c64b6848818df0a1bc53/transformed/jetified-middleware-2.6.0/AndroidManifest.xml:2:1-9:12
MERGED from [com.facebook.fresco:ui-common:2.6.0] /home/vishal/.gradle/caches/transforms-3/d85baf65d8e804b63b1f40f71e53e2c4/transformed/jetified-ui-common-2.6.0/AndroidManifest.xml:2:1-9:12
MERGED from [androidx.vectordrawable:vectordrawable-animated:1.1.0] /home/vishal/.gradle/caches/transforms-3/c66a0e494ae03615f4f2412eca3a7dd2/transformed/vectordrawable-animated-1.1.0/AndroidManifest.xml:17:1-24:12
MERGED from [androidx.interpolator:interpolator:1.0.0] /home/vishal/.gradle/caches/transforms-3/859aeea425ecb1c9af8d15503a5ef58a/transformed/interpolator-1.0.0/AndroidManifest.xml:17:1-22:12
MERGED from [androidx.core:core-ktx:1.6.0] /home/vishal/.gradle/caches/transforms-3/9644fb1c4cab9aa0d403c9f34e6ea78e/transformed/jetified-core-ktx-1.6.0/AndroidManifest.xml:2:1-9:12
MERGED from [androidx.coordinatorlayout:coordinatorlayout:1.1.0] /home/vishal/.gradle/caches/transforms-3/499913aa779d5677f84de1b3821854aa/transformed/coordinatorlayout-1.1.0/AndroidManifest.xml:17:1-24:12
MERGED from [androidx.sqlite:sqlite:2.1.0] /home/vishal/.gradle/caches/transforms-3/6c2e0b04a335666cd4b78cb912868b2a/transformed/sqlite-2.1.0/AndroidManifest.xml:17:1-24:12
MERGED from [com.google.android.gms:play-services-iid:17.0.0] /home/vishal/.gradle/caches/transforms-3/89eb40e51d9a03750fe3a25c96373511/transformed/jetified-play-services-iid-17.0.0/AndroidManifest.xml:17:1-28:12
MERGED from [com.google.android.gms:play-services-base:17.0.0] /home/vishal/.gradle/caches/transforms-3/37f8ffa3ec488a48f4844b49ea25bc5d/transformed/jetified-play-services-base-17.0.0/AndroidManifest.xml:17:1-29:12
MERGED from [com.google.android.gms:play-services-stats:17.0.0] /home/vishal/.gradle/caches/transforms-3/b4238051cdef5491a766d1f00f673d73/transformed/jetified-play-services-stats-17.0.0/AndroidManifest.xml:2:1-9:12
MERGED from [com.google.android.gms:play-services-tasks:17.0.0] /home/vishal/.gradle/caches/transforms-3/53b5bd42f3e67d38a82c9d9b3bfba244/transformed/jetified-play-services-tasks-17.0.0/AndroidManifest.xml:2:1-9:12
MERGED from [com.google.android.gms:play-services-basement:17.0.0] /home/vishal/.gradle/caches/transforms-3/c0b86808731a4a9f10bb9c1bec75b274/transformed/jetified-play-services-basement-17.0.0/AndroidManifest.xml:17:1-28:12
MERGED from [androidx.viewpager2:viewpager2:1.0.0] /home/vishal/.gradle/caches/transforms-3/237960ca1607edccd2d98c15f52b2dce/transformed/jetified-viewpager2-1.0.0/AndroidManifest.xml:17:1-24:12
MERGED from [androidx.fragment:fragment:1.3.6] /home/vishal/.gradle/caches/transforms-3/d7aa1f198091ea1cc50dc1c26600633f/transformed/fragment-1.3.6/AndroidManifest.xml:17:1-24:12
MERGED from [androidx.activity:activity:1.2.4] /home/vishal/.gradle/caches/transforms-3/93b2272f240cad8e035912fc59023723/transformed/jetified-activity-1.2.4/AndroidManifest.xml:17:1-24:12
MERGED from [androidx.drawerlayout:drawerlayout:1.0.0] /home/vishal/.gradle/caches/transforms-3/69908e7aabb5f8e8c96016d7080edb0b/transformed/drawerlayout-1.0.0/AndroidManifest.xml:17:1-22:12
MERGED from [androidx.emoji2:emoji2-views-helper:1.0.0] /home/vishal/.gradle/caches/transforms-3/649b06ba711978c865b75aec65373f65/transformed/jetified-emoji2-views-helper-1.0.0/AndroidManifest.xml:17:1-24:12
MERGED from [androidx.emoji2:emoji2:1.0.0] /home/vishal/.gradle/caches/transforms-3/b6fe4da57007a43d86a66ba4c66459bd/transformed/jetified-emoji2-1.0.0/AndroidManifest.xml:17:1-37:12
MERGED from [androidx.vectordrawable:vectordrawable:1.1.0] /home/vishal/.gradle/caches/transforms-3/5485ed2b9a71c62e22c1219fe73818e6/transformed/vectordrawable-1.1.0/AndroidManifest.xml:17:1-24:12
MERGED from [androidx.viewpager:viewpager:1.0.0] /home/vishal/.gradle/caches/transforms-3/54674ed73524b1962b330547fa9e7fbc/transformed/viewpager-1.0.0/AndroidManifest.xml:17:1-22:12
MERGED from [androidx.recyclerview:recyclerview:1.1.0] /home/vishal/.gradle/caches/transforms-3/cf79e2e10938f670193b7a1a75260249/transformed/recyclerview-1.1.0/AndroidManifest.xml:17:1-24:12
MERGED from [androidx.customview:customview:1.0.0] /home/vishal/.gradle/caches/transforms-3/2c00fb4e8cc43a34d9961315839c8c84/transformed/customview-1.0.0/AndroidManifest.xml:17:1-22:12
MERGED from [androidx.transition:transition:1.2.0] /home/vishal/.gradle/caches/transforms-3/cab5912a28841561c11328a45e4e2bef/transformed/transition-1.2.0/AndroidManifest.xml:17:1-24:12
MERGED from [androidx.legacy:legacy-support-core-utils:1.0.0] /home/vishal/.gradle/caches/transforms-3/d85637288b142022521125c7f85e74c4/transformed/legacy-support-core-utils-1.0.0/AndroidManifest.xml:17:1-22:12
MERGED from [androidx.loader:loader:1.0.0] /home/vishal/.gradle/caches/transforms-3/147d35bca0a0f8eb1ae628cbfc80b3b2/transformed/loader-1.0.0/AndroidManifest.xml:17:1-22:12
MERGED from [androidx.core:core:1.7.0] /home/vishal/.gradle/caches/transforms-3/63a3df243d2d102452600006144a86df/transformed/core-1.7.0/AndroidManifest.xml:17:1-26:12
MERGED from [androidx.cursoradapter:cursoradapter:1.0.0] /home/vishal/.gradle/caches/transforms-3/87ce219c756988d16a49cc9fe4d12962/transformed/cursoradapter-1.0.0/AndroidManifest.xml:17:1-22:12
MERGED from [androidx.lifecycle:lifecycle-viewmodel-savedstate:2.3.1] /home/vishal/.gradle/caches/transforms-3/3e847e61051fb1433336e91daf953259/transformed/jetified-lifecycle-viewmodel-savedstate-2.3.1/AndroidManifest.xml:17:1-24:12
MERGED from [androidx.savedstate:savedstate:1.1.0] /home/vishal/.gradle/caches/transforms-3/ce9f1e414807aaf172c5918b0e15fa8f/transformed/jetified-savedstate-1.1.0/AndroidManifest.xml:17:1-24:12
MERGED from [androidx.lifecycle:lifecycle-viewmodel:2.3.1] /home/vishal/.gradle/caches/transforms-3/0bbaa5972f900275fec64cf526ac0bea/transformed/lifecycle-viewmodel-2.3.1/AndroidManifest.xml:17:1-24:12
MERGED from [androidx.cardview:cardview:1.0.0] /home/vishal/.gradle/caches/transforms-3/3cb37a6faf29ddf73604c194d6dae8fd/transformed/cardview-1.0.0/AndroidManifest.xml:17:1-22:12
MERGED from [androidx.versionedparcelable:versionedparcelable:1.1.1] /home/vishal/.gradle/caches/transforms-3/b6f3e7651a74a74278e1a753048bf61a/transformed/versionedparcelable-1.1.1/AndroidManifest.xml:17:1-27:12
MERGED from [androidx.lifecycle:lifecycle-process:2.4.0] /home/vishal/.gradle/caches/transforms-3/bc74a39e1ea23fea00bfcf2682a93948/transformed/jetified-lifecycle-process-2.4.0/AndroidManifest.xml:17:1-37:12
MERGED from [androidx.startup:startup-runtime:1.0.0] /home/vishal/.gradle/caches/transforms-3/3e0d478508575b75c79938eb5fb0fb04/transformed/jetified-startup-runtime-1.0.0/AndroidManifest.xml:17:1-33:12
MERGED from [androidx.tracing:tracing:1.0.0] /home/vishal/.gradle/caches/transforms-3/0f0f5e42aea69d3ef4b498b0dacc0aba/transformed/jetified-tracing-1.0.0/AndroidManifest.xml:17:1-24:12
MERGED from [androidx.lifecycle:lifecycle-livedata:2.0.0] /home/vishal/.gradle/caches/transforms-3/6c8ebe32a5ea13a3f8e5bbe4096d6ca3/transformed/lifecycle-livedata-2.0.0/AndroidManifest.xml:17:1-22:12
MERGED from [androidx.lifecycle:lifecycle-livedata-core:2.3.1] /home/vishal/.gradle/caches/transforms-3/c5f7e926f38f52b0a9f87d57ff260610/transformed/lifecycle-livedata-core-2.3.1/AndroidManifest.xml:17:1-24:12
MERGED from [androidx.lifecycle:lifecycle-runtime:2.4.0] /home/vishal/.gradle/caches/transforms-3/4e5f2ec05243774aa7a6d3ac597ca78a/transformed/lifecycle-runtime-2.4.0/AndroidManifest.xml:17:1-24:12
MERGED from [androidx.arch.core:core-runtime:2.1.0] /home/vishal/.gradle/caches/transforms-3/264bfea9cec9553b72567ddd2a81a286/transformed/core-runtime-2.1.0/AndroidManifest.xml:17:1-24:12
MERGED from [androidx.documentfile:documentfile:1.0.0] /home/vishal/.gradle/caches/transforms-3/806eac4852f109b813bc70ce28c2490e/transformed/documentfile-1.0.0/AndroidManifest.xml:17:1-22:12
MERGED from [androidx.localbroadcastmanager:localbroadcastmanager:1.0.0] /home/vishal/.gradle/caches/transforms-3/c5631a9198c91087e2781cc099ce3c49/transformed/localbroadcastmanager-1.0.0/AndroidManifest.xml:17:1-22:12
MERGED from [androidx.print:print:1.0.0] /home/vishal/.gradle/caches/transforms-3/0bf5b5943b3bd88b7b8a598e0e83c637/transformed/print-1.0.0/AndroidManifest.xml:17:1-22:12
MERGED from [com.android.installreferrer:installreferrer:1.1.2] /home/vishal/.gradle/caches/transforms-3/318328e3183509abffbee01fc4efd067/transformed/jetified-installreferrer-1.1.2/AndroidManifest.xml:2:1-13:12
MERGED from [com.facebook.fresco:fbcore:2.6.0] /home/vishal/.gradle/caches/transforms-3/fe525e62d2b9e85c0d777a0bb14f7298/transformed/jetified-fbcore-2.6.0/AndroidManifest.xml:2:1-9:12
MERGED from [androidx.annotation:annotation-experimental:1.1.0] /home/vishal/.gradle/caches/transforms-3/54294f5f857978835a11e24fc1422778/transformed/jetified-annotation-experimental-1.1.0/AndroidManifest.xml:17:1-24:12
INJECTED from /home/vishal/monatv/android/app/src/debug/AndroidManifest.xml:2:1-13:12
INJECTED from /home/vishal/monatv/android/app/src/debug/AndroidManifest.xml:2:1-13:12
INJECTED from /home/vishal/monatv/android/app/src/debug/AndroidManifest.xml:2:1-13:12
	package
		ADDED from /home/vishal/monatv/android/app/src/main/AndroidManifest.xml:2:3-20
		INJECTED from /home/vishal/monatv/android/app/src/main/AndroidManifest.xml
		ADDED from /home/vishal/monatv/android/app/src/main/AndroidManifest.xml:2:3-20
		INJECTED from /home/vishal/monatv/android/app/src/debug/AndroidManifest.xml
	android:versionName
		ADDED from /home/vishal/monatv/android/app/src/main/AndroidManifest.xml:4:3-28
		INJECTED from /home/vishal/monatv/android/app/src/main/AndroidManifest.xml
		ADDED from /home/vishal/monatv/android/app/src/main/AndroidManifest.xml:4:3-28
		INJECTED from /home/vishal/monatv/android/app/src/debug/AndroidManifest.xml
	xmlns:tools
		ADDED from /home/vishal/monatv/android/app/src/debug/AndroidManifest.xml:3:5-51
	xmlns:android
		ADDED from /home/vishal/monatv/android/app/src/main/AndroidManifest.xml:1:11-69
	android:versionCode
		ADDED from /home/vishal/monatv/android/app/src/main/AndroidManifest.xml:3:3-26
		INJECTED from /home/vishal/monatv/android/app/src/main/AndroidManifest.xml
		ADDED from /home/vishal/monatv/android/app/src/main/AndroidManifest.xml:3:3-26
		INJECTED from /home/vishal/monatv/android/app/src/debug/AndroidManifest.xml
uses-permission#android.permission.INTERNET
ADDED from /home/vishal/monatv/android/app/src/main/AndroidManifest.xml:6:5-67
MERGED from [com.facebook.flipper:flipper:0.125.0] /home/vishal/.gradle/caches/transforms-3/03f04a3f11198ce3b7c6cedb9b41266b/transformed/jetified-flipper-0.125.0/AndroidManifest.xml:15:5-67
MERGED from [com.facebook.flipper:flipper:0.125.0] /home/vishal/.gradle/caches/transforms-3/03f04a3f11198ce3b7c6cedb9b41266b/transformed/jetified-flipper-0.125.0/AndroidManifest.xml:15:5-67
MERGED from [:react-native-blob-util] /home/vishal/monatv/node_modules/react-native-blob-util/android/build/intermediates/merged_manifest/debug/AndroidManifest.xml:10:5-67
MERGED from [:react-native-blob-util] /home/vishal/monatv/node_modules/react-native-blob-util/android/build/intermediates/merged_manifest/debug/AndroidManifest.xml:10:5-67
MERGED from [com.google.android.gms:play-services-iid:17.0.0] /home/vishal/.gradle/caches/transforms-3/89eb40e51d9a03750fe3a25c96373511/transformed/jetified-play-services-iid-17.0.0/AndroidManifest.xml:24:5-67
MERGED from [com.google.android.gms:play-services-iid:17.0.0] /home/vishal/.gradle/caches/transforms-3/89eb40e51d9a03750fe3a25c96373511/transformed/jetified-play-services-iid-17.0.0/AndroidManifest.xml:24:5-67
	android:name
		ADDED from /home/vishal/monatv/android/app/src/main/AndroidManifest.xml:6:22-64
uses-permission#android.permission.SYSTEM_ALERT_WINDOW
ADDED from /home/vishal/monatv/android/app/src/main/AndroidManifest.xml:7:5-78
MERGED from /home/vishal/monatv/android/app/src/main/AndroidManifest.xml:7:5-78
MERGED from /home/vishal/monatv/android/app/src/main/AndroidManifest.xml:7:5-78
	android:name
		ADDED from /home/vishal/monatv/android/app/src/main/AndroidManifest.xml:7:22-75
uses-permission#android.permission.READ_EXTERNAL_STORAGE
ADDED from /home/vishal/monatv/android/app/src/main/AndroidManifest.xml:8:5-80
MERGED from [:react-native-blob-util] /home/vishal/monatv/node_modules/react-native-blob-util/android/build/intermediates/merged_manifest/debug/AndroidManifest.xml:31:5-80
MERGED from [:react-native-blob-util] /home/vishal/monatv/node_modules/react-native-blob-util/android/build/intermediates/merged_manifest/debug/AndroidManifest.xml:31:5-80
	android:name
		ADDED from /home/vishal/monatv/android/app/src/main/AndroidManifest.xml:8:22-77
uses-permission#android.permission.WRITE_EXTERNAL_STORAGE
ADDED from /home/vishal/monatv/android/app/src/main/AndroidManifest.xml:9:5-81
MERGED from [:react-native-blob-util] /home/vishal/monatv/node_modules/react-native-blob-util/android/build/intermediates/merged_manifest/debug/AndroidManifest.xml:28:5-81
MERGED from [:react-native-blob-util] /home/vishal/monatv/node_modules/react-native-blob-util/android/build/intermediates/merged_manifest/debug/AndroidManifest.xml:28:5-81
MERGED from [:react-native-fs] /home/vishal/monatv/node_modules/react-native-fs/android/build/intermediates/merged_manifest/debug/AndroidManifest.xml:9:5-81
MERGED from [:react-native-fs] /home/vishal/monatv/node_modules/react-native-fs/android/build/intermediates/merged_manifest/debug/AndroidManifest.xml:9:5-81
	android:name
		ADDED from /home/vishal/monatv/android/app/src/main/AndroidManifest.xml:9:22-78
uses-permission#android.permission.DOWNLOAD_WITHOUT_NOTIFICATION
ADDED from /home/vishal/monatv/android/app/src/main/AndroidManifest.xml:10:5-88
MERGED from [:react-native-blob-util] /home/vishal/monatv/node_modules/react-native-blob-util/android/build/intermediates/merged_manifest/debug/AndroidManifest.xml:34:5-88
MERGED from [:react-native-blob-util] /home/vishal/monatv/node_modules/react-native-blob-util/android/build/intermediates/merged_manifest/debug/AndroidManifest.xml:34:5-88
	android:name
		ADDED from /home/vishal/monatv/android/app/src/main/AndroidManifest.xml:10:22-85
uses-permission#android.permission.ACCESS_WIFI_STATE
ADDED from /home/vishal/monatv/android/app/src/main/AndroidManifest.xml:11:5-76
MERGED from [com.facebook.flipper:flipper:0.125.0] /home/vishal/.gradle/caches/transforms-3/03f04a3f11198ce3b7c6cedb9b41266b/transformed/jetified-flipper-0.125.0/AndroidManifest.xml:16:5-76
MERGED from [com.facebook.flipper:flipper:0.125.0] /home/vishal/.gradle/caches/transforms-3/03f04a3f11198ce3b7c6cedb9b41266b/transformed/jetified-flipper-0.125.0/AndroidManifest.xml:16:5-76
MERGED from [:react-native-blob-util] /home/vishal/monatv/node_modules/react-native-blob-util/android/build/intermediates/merged_manifest/debug/AndroidManifest.xml:25:5-76
MERGED from [:react-native-blob-util] /home/vishal/monatv/node_modules/react-native-blob-util/android/build/intermediates/merged_manifest/debug/AndroidManifest.xml:25:5-76
	android:name
		ADDED from /home/vishal/monatv/android/app/src/main/AndroidManifest.xml:11:22-73
uses-permission#android.permission.RECEIVE_BOOT_COMPLETED
ADDED from /home/vishal/monatv/android/app/src/main/AndroidManifest.xml:12:5-81
	android:name
		ADDED from /home/vishal/monatv/android/app/src/main/AndroidManifest.xml:12:22-78
uses-feature#android.software.leanback
ADDED from /home/vishal/monatv/android/app/src/main/AndroidManifest.xml:13:5-86
	android:required
		ADDED from /home/vishal/monatv/android/app/src/main/AndroidManifest.xml:13:60-83
	android:name
		ADDED from /home/vishal/monatv/android/app/src/main/AndroidManifest.xml:13:19-59
uses-feature#android.hardware.touchscreen
ADDED from /home/vishal/monatv/android/app/src/main/AndroidManifest.xml:14:5-90
	android:required
		ADDED from /home/vishal/monatv/android/app/src/main/AndroidManifest.xml:14:63-87
	android:name
		ADDED from /home/vishal/monatv/android/app/src/main/AndroidManifest.xml:14:19-62
queries
ADDED from /home/vishal/monatv/android/app/src/main/AndroidManifest.xml:15:5-22:15
intent#action:name:android.intent.action.VIEW+category:name:android.intent.category.BROWSABLE+data:scheme:https
ADDED from /home/vishal/monatv/android/app/src/main/AndroidManifest.xml:17:7-21:16
action#android.intent.action.VIEW
ADDED from /home/vishal/monatv/android/app/src/main/AndroidManifest.xml:18:9-61
	android:name
		ADDED from /home/vishal/monatv/android/app/src/main/AndroidManifest.xml:18:17-58
category#android.intent.category.BROWSABLE
ADDED from /home/vishal/monatv/android/app/src/main/AndroidManifest.xml:19:9-70
	android:name
		ADDED from /home/vishal/monatv/android/app/src/main/AndroidManifest.xml:19:19-67
data
ADDED from /home/vishal/monatv/android/app/src/main/AndroidManifest.xml:20:9-40
	android:scheme
		ADDED from /home/vishal/monatv/android/app/src/main/AndroidManifest.xml:20:15-37
application
ADDED from /home/vishal/monatv/android/app/src/main/AndroidManifest.xml:24:5-62:19
MERGED from /home/vishal/monatv/android/app/src/main/AndroidManifest.xml:24:5-62:19
MERGED from /home/vishal/monatv/android/app/src/main/AndroidManifest.xml:24:5-62:19
MERGED from [:react-native-blob-util] /home/vishal/monatv/node_modules/react-native-blob-util/android/build/intermediates/merged_manifest/debug/AndroidManifest.xml:36:5-46:19
MERGED from [:react-native-blob-util] /home/vishal/monatv/node_modules/react-native-blob-util/android/build/intermediates/merged_manifest/debug/AndroidManifest.xml:36:5-46:19
MERGED from [com.facebook.react:react-native:0.70.2] /home/vishal/.gradle/caches/transforms-3/790d0e301814aa39d1ebcac266155cf1/transformed/jetified-react-native-0.70.2-debug/AndroidManifest.xml:9:5-20
MERGED from [com.facebook.react:react-native:0.70.2] /home/vishal/.gradle/caches/transforms-3/790d0e301814aa39d1ebcac266155cf1/transformed/jetified-react-native-0.70.2-debug/AndroidManifest.xml:9:5-20
MERGED from [com.facebook.soloader:soloader:0.10.4] /home/vishal/.gradle/caches/transforms-3/87826452408345e9fcde9828ee0fb34c/transformed/jetified-soloader-0.10.4/AndroidManifest.xml:11:5-20
MERGED from [com.facebook.soloader:soloader:0.10.4] /home/vishal/.gradle/caches/transforms-3/87826452408345e9fcde9828ee0fb34c/transformed/jetified-soloader-0.10.4/AndroidManifest.xml:11:5-20
MERGED from [com.google.android.material:material:1.1.0] /home/vishal/.gradle/caches/transforms-3/ff7f9e1ea9c2e709fffb9e018f2252cf/transformed/material-1.1.0/AndroidManifest.xml:22:5-20
MERGED from [com.google.android.material:material:1.1.0] /home/vishal/.gradle/caches/transforms-3/ff7f9e1ea9c2e709fffb9e018f2252cf/transformed/material-1.1.0/AndroidManifest.xml:22:5-20
MERGED from [com.google.android.gms:play-services-iid:17.0.0] /home/vishal/.gradle/caches/transforms-3/89eb40e51d9a03750fe3a25c96373511/transformed/jetified-play-services-iid-17.0.0/AndroidManifest.xml:26:5-20
MERGED from [com.google.android.gms:play-services-iid:17.0.0] /home/vishal/.gradle/caches/transforms-3/89eb40e51d9a03750fe3a25c96373511/transformed/jetified-play-services-iid-17.0.0/AndroidManifest.xml:26:5-20
MERGED from [com.google.android.gms:play-services-base:17.0.0] /home/vishal/.gradle/caches/transforms-3/37f8ffa3ec488a48f4844b49ea25bc5d/transformed/jetified-play-services-base-17.0.0/AndroidManifest.xml:22:5-27:19
MERGED from [com.google.android.gms:play-services-base:17.0.0] /home/vishal/.gradle/caches/transforms-3/37f8ffa3ec488a48f4844b49ea25bc5d/transformed/jetified-play-services-base-17.0.0/AndroidManifest.xml:22:5-27:19
MERGED from [com.google.android.gms:play-services-stats:17.0.0] /home/vishal/.gradle/caches/transforms-3/b4238051cdef5491a766d1f00f673d73/transformed/jetified-play-services-stats-17.0.0/AndroidManifest.xml:7:5-20
MERGED from [com.google.android.gms:play-services-stats:17.0.0] /home/vishal/.gradle/caches/transforms-3/b4238051cdef5491a766d1f00f673d73/transformed/jetified-play-services-stats-17.0.0/AndroidManifest.xml:7:5-20
MERGED from [com.google.android.gms:play-services-tasks:17.0.0] /home/vishal/.gradle/caches/transforms-3/53b5bd42f3e67d38a82c9d9b3bfba244/transformed/jetified-play-services-tasks-17.0.0/AndroidManifest.xml:7:5-20
MERGED from [com.google.android.gms:play-services-tasks:17.0.0] /home/vishal/.gradle/caches/transforms-3/53b5bd42f3e67d38a82c9d9b3bfba244/transformed/jetified-play-services-tasks-17.0.0/AndroidManifest.xml:7:5-20
MERGED from [com.google.android.gms:play-services-basement:17.0.0] /home/vishal/.gradle/caches/transforms-3/c0b86808731a4a9f10bb9c1bec75b274/transformed/jetified-play-services-basement-17.0.0/AndroidManifest.xml:22:5-26:19
MERGED from [com.google.android.gms:play-services-basement:17.0.0] /home/vishal/.gradle/caches/transforms-3/c0b86808731a4a9f10bb9c1bec75b274/transformed/jetified-play-services-basement-17.0.0/AndroidManifest.xml:22:5-26:19
MERGED from [androidx.emoji2:emoji2:1.0.0] /home/vishal/.gradle/caches/transforms-3/b6fe4da57007a43d86a66ba4c66459bd/transformed/jetified-emoji2-1.0.0/AndroidManifest.xml:25:5-35:19
MERGED from [androidx.emoji2:emoji2:1.0.0] /home/vishal/.gradle/caches/transforms-3/b6fe4da57007a43d86a66ba4c66459bd/transformed/jetified-emoji2-1.0.0/AndroidManifest.xml:25:5-35:19
MERGED from [androidx.core:core:1.7.0] /home/vishal/.gradle/caches/transforms-3/63a3df243d2d102452600006144a86df/transformed/core-1.7.0/AndroidManifest.xml:24:5-89
MERGED from [androidx.core:core:1.7.0] /home/vishal/.gradle/caches/transforms-3/63a3df243d2d102452600006144a86df/transformed/core-1.7.0/AndroidManifest.xml:24:5-89
MERGED from [androidx.versionedparcelable:versionedparcelable:1.1.1] /home/vishal/.gradle/caches/transforms-3/b6f3e7651a74a74278e1a753048bf61a/transformed/versionedparcelable-1.1.1/AndroidManifest.xml:24:5-25:19
MERGED from [androidx.versionedparcelable:versionedparcelable:1.1.1] /home/vishal/.gradle/caches/transforms-3/b6f3e7651a74a74278e1a753048bf61a/transformed/versionedparcelable-1.1.1/AndroidManifest.xml:24:5-25:19
MERGED from [androidx.lifecycle:lifecycle-process:2.4.0] /home/vishal/.gradle/caches/transforms-3/bc74a39e1ea23fea00bfcf2682a93948/transformed/jetified-lifecycle-process-2.4.0/AndroidManifest.xml:25:5-35:19
MERGED from [androidx.lifecycle:lifecycle-process:2.4.0] /home/vishal/.gradle/caches/transforms-3/bc74a39e1ea23fea00bfcf2682a93948/transformed/jetified-lifecycle-process-2.4.0/AndroidManifest.xml:25:5-35:19
MERGED from [androidx.startup:startup-runtime:1.0.0] /home/vishal/.gradle/caches/transforms-3/3e0d478508575b75c79938eb5fb0fb04/transformed/jetified-startup-runtime-1.0.0/AndroidManifest.xml:25:5-31:19
MERGED from [androidx.startup:startup-runtime:1.0.0] /home/vishal/.gradle/caches/transforms-3/3e0d478508575b75c79938eb5fb0fb04/transformed/jetified-startup-runtime-1.0.0/AndroidManifest.xml:25:5-31:19
MERGED from [com.android.installreferrer:installreferrer:1.1.2] /home/vishal/.gradle/caches/transforms-3/318328e3183509abffbee01fc4efd067/transformed/jetified-installreferrer-1.1.2/AndroidManifest.xml:11:5-20
MERGED from [com.android.installreferrer:installreferrer:1.1.2] /home/vishal/.gradle/caches/transforms-3/318328e3183509abffbee01fc4efd067/transformed/jetified-installreferrer-1.1.2/AndroidManifest.xml:11:5-20
	android:requestLegacyExternalStorage
		ADDED from /home/vishal/monatv/android/app/src/main/AndroidManifest.xml:31:43-86
		ADDED from /home/vishal/monatv/android/app/src/main/AndroidManifest.xml:31:43-86
	android:appComponentFactory
		ADDED from [androidx.core:core:1.7.0] /home/vishal/.gradle/caches/transforms-3/63a3df243d2d102452600006144a86df/transformed/core-1.7.0/AndroidManifest.xml:24:18-86
	android:label
		ADDED from /home/vishal/monatv/android/app/src/main/AndroidManifest.xml:26:7-39
		ADDED from /home/vishal/monatv/android/app/src/main/AndroidManifest.xml:26:7-39
	tools:ignore
		ADDED from /home/vishal/monatv/android/app/src/debug/AndroidManifest.xml:10:9-48
	android:roundIcon
		ADDED from /home/vishal/monatv/android/app/src/main/AndroidManifest.xml:28:7-52
		ADDED from /home/vishal/monatv/android/app/src/main/AndroidManifest.xml:28:7-52
	tools:targetApi
		ADDED from /home/vishal/monatv/android/app/src/debug/AndroidManifest.xml:9:9-29
	android:icon
		ADDED from /home/vishal/monatv/android/app/src/main/AndroidManifest.xml:27:7-41
		ADDED from /home/vishal/monatv/android/app/src/main/AndroidManifest.xml:27:7-41
	android:allowBackup
		ADDED from /home/vishal/monatv/android/app/src/main/AndroidManifest.xml:29:7-34
		ADDED from /home/vishal/monatv/android/app/src/main/AndroidManifest.xml:29:7-34
	android:banner
		ADDED from /home/vishal/monatv/android/app/src/main/AndroidManifest.xml:32:7-43
		ADDED from /home/vishal/monatv/android/app/src/main/AndroidManifest.xml:32:7-43
	android:theme
		ADDED from /home/vishal/monatv/android/app/src/main/AndroidManifest.xml:30:7-38
		ADDED from /home/vishal/monatv/android/app/src/main/AndroidManifest.xml:30:7-38
	android:usesCleartextTraffic
		ADDED from /home/vishal/monatv/android/app/src/main/AndroidManifest.xml:31:7-42
	android:name
		ADDED from /home/vishal/monatv/android/app/src/main/AndroidManifest.xml:25:7-38
		ADDED from /home/vishal/monatv/android/app/src/main/AndroidManifest.xml:25:7-38
activity#com.mos.MainActivity
ADDED from /home/vishal/monatv/android/app/src/main/AndroidManifest.xml:34:7-48:18
	android:label
		ADDED from /home/vishal/monatv/android/app/src/main/AndroidManifest.xml:36:9-41
	android:launchMode
		ADDED from /home/vishal/monatv/android/app/src/main/AndroidManifest.xml:38:9-40
	android:windowSoftInputMode
		ADDED from /home/vishal/monatv/android/app/src/main/AndroidManifest.xml:39:9-51
	android:exported
		ADDED from /home/vishal/monatv/android/app/src/main/AndroidManifest.xml:41:9-32
	android:configChanges
		ADDED from /home/vishal/monatv/android/app/src/main/AndroidManifest.xml:37:9-118
	android:theme
		ADDED from /home/vishal/monatv/android/app/src/main/AndroidManifest.xml:40:9-54
	android:name
		ADDED from /home/vishal/monatv/android/app/src/main/AndroidManifest.xml:35:9-37
intent-filter#action:name:android.intent.action.DOWNLOAD_COMPLETE+action:name:android.intent.action.MAIN+category:name:android.intent.category.LAUNCHER+category:name:android.intent.category.LEANBACK_LAUNCHER
ADDED from /home/vishal/monatv/android/app/src/main/AndroidManifest.xml:42:9-47:25
action#android.intent.action.MAIN
ADDED from /home/vishal/monatv/android/app/src/main/AndroidManifest.xml:43:11-62
	android:name
		ADDED from /home/vishal/monatv/android/app/src/main/AndroidManifest.xml:43:19-60
category#android.intent.category.LAUNCHER
ADDED from /home/vishal/monatv/android/app/src/main/AndroidManifest.xml:44:11-70
	android:name
		ADDED from /home/vishal/monatv/android/app/src/main/AndroidManifest.xml:44:21-68
category#android.intent.category.LEANBACK_LAUNCHER
ADDED from /home/vishal/monatv/android/app/src/main/AndroidManifest.xml:45:11-79
	android:name
		ADDED from /home/vishal/monatv/android/app/src/main/AndroidManifest.xml:45:21-77
action#android.intent.action.DOWNLOAD_COMPLETE
ADDED from /home/vishal/monatv/android/app/src/main/AndroidManifest.xml:46:11-75
	android:name
		ADDED from /home/vishal/monatv/android/app/src/main/AndroidManifest.xml:46:19-73
receiver#com.mos.StartActivityOnBootReceiver
ADDED from /home/vishal/monatv/android/app/src/main/AndroidManifest.xml:49:7-60:18
	android:enabled
		ADDED from /home/vishal/monatv/android/app/src/main/AndroidManifest.xml:50:9-31
	android:exported
		ADDED from /home/vishal/monatv/android/app/src/main/AndroidManifest.xml:51:9-32
	android:permission
		ADDED from /home/vishal/monatv/android/app/src/main/AndroidManifest.xml:53:9-71
	android:name
		ADDED from /home/vishal/monatv/android/app/src/main/AndroidManifest.xml:52:9-52
intent-filter#action:name:android.intent.action.BOOT_COMPLETED+action:name:android.intent.action.QUICKBOOT_POWERON+category:name:android.intent.category.DEFAULT
ADDED from /home/vishal/monatv/android/app/src/main/AndroidManifest.xml:55:9-59:25
action#android.intent.action.BOOT_COMPLETED
ADDED from /home/vishal/monatv/android/app/src/main/AndroidManifest.xml:56:13-75
	android:name
		ADDED from /home/vishal/monatv/android/app/src/main/AndroidManifest.xml:56:21-72
action#android.intent.action.QUICKBOOT_POWERON
ADDED from /home/vishal/monatv/android/app/src/main/AndroidManifest.xml:57:13-78
	android:name
		ADDED from /home/vishal/monatv/android/app/src/main/AndroidManifest.xml:57:21-75
category#android.intent.category.DEFAULT
ADDED from /home/vishal/monatv/android/app/src/main/AndroidManifest.xml:58:13-72
	android:name
		ADDED from /home/vishal/monatv/android/app/src/main/AndroidManifest.xml:58:23-69
activity#com.facebook.react.devsupport.DevSettingsActivity
ADDED from /home/vishal/monatv/android/app/src/main/AndroidManifest.xml:61:7-108
MERGED from /home/vishal/monatv/android/app/src/main/AndroidManifest.xml:61:7-108
MERGED from /home/vishal/monatv/android/app/src/main/AndroidManifest.xml:61:7-108
	android:exported
		ADDED from /home/vishal/monatv/android/app/src/main/AndroidManifest.xml:61:82-106
	android:name
		ADDED from /home/vishal/monatv/android/app/src/main/AndroidManifest.xml:61:17-81
uses-sdk
INJECTED from /home/vishal/monatv/android/app/src/main/AndroidManifest.xml reason: use-sdk injection requested
INJECTED from /home/vishal/monatv/android/app/src/main/AndroidManifest.xml
INJECTED from /home/vishal/monatv/android/app/src/main/AndroidManifest.xml
MERGED from [com.facebook.flipper:flipper:0.125.0] /home/vishal/.gradle/caches/transforms-3/03f04a3f11198ce3b7c6cedb9b41266b/transformed/jetified-flipper-0.125.0/AndroidManifest.xml:11:5-13:41
MERGED from [com.facebook.flipper:flipper:0.125.0] /home/vishal/.gradle/caches/transforms-3/03f04a3f11198ce3b7c6cedb9b41266b/transformed/jetified-flipper-0.125.0/AndroidManifest.xml:11:5-13:41
MERGED from [com.facebook.flipper:flipper-network-plugin:0.125.0] /home/vishal/.gradle/caches/transforms-3/e32b7eeb3398efff4e100fae60e161ae/transformed/jetified-flipper-network-plugin-0.125.0/AndroidManifest.xml:11:5-13:41
MERGED from [com.facebook.flipper:flipper-network-plugin:0.125.0] /home/vishal/.gradle/caches/transforms-3/e32b7eeb3398efff4e100fae60e161ae/transformed/jetified-flipper-network-plugin-0.125.0/AndroidManifest.xml:11:5-13:41
MERGED from [com.facebook.flipper:flipper-fresco-plugin:0.125.0] /home/vishal/.gradle/caches/transforms-3/d00cb5af49214c127447117a850c65b4/transformed/jetified-flipper-fresco-plugin-0.125.0/AndroidManifest.xml:11:5-13:41
MERGED from [com.facebook.flipper:flipper-fresco-plugin:0.125.0] /home/vishal/.gradle/caches/transforms-3/d00cb5af49214c127447117a850c65b4/transformed/jetified-flipper-fresco-plugin-0.125.0/AndroidManifest.xml:11:5-13:41
MERGED from [:react-native-async-storage_async-storage] /home/vishal/monatv/node_modules/@react-native-async-storage/async-storage/android/build/intermediates/merged_manifest/debug/AndroidManifest.xml:5:5-7:41
MERGED from [:react-native-async-storage_async-storage] /home/vishal/monatv/node_modules/@react-native-async-storage/async-storage/android/build/intermediates/merged_manifest/debug/AndroidManifest.xml:5:5-7:41
MERGED from [:react-native-blob-util] /home/vishal/monatv/node_modules/react-native-blob-util/android/build/intermediates/merged_manifest/debug/AndroidManifest.xml:5:5-7:41
MERGED from [:react-native-blob-util] /home/vishal/monatv/node_modules/react-native-blob-util/android/build/intermediates/merged_manifest/debug/AndroidManifest.xml:5:5-7:41
MERGED from [:react-native-device-info] /home/vishal/monatv/node_modules/react-native-device-info/android/build/intermediates/merged_manifest/debug/AndroidManifest.xml:5:5-7:41
MERGED from [:react-native-device-info] /home/vishal/monatv/node_modules/react-native-device-info/android/build/intermediates/merged_manifest/debug/AndroidManifest.xml:5:5-7:41
MERGED from [:react-native-fs] /home/vishal/monatv/node_modules/react-native-fs/android/build/intermediates/merged_manifest/debug/AndroidManifest.xml:5:5-7:41
MERGED from [:react-native-fs] /home/vishal/monatv/node_modules/react-native-fs/android/build/intermediates/merged_manifest/debug/AndroidManifest.xml:5:5-7:41
MERGED from [:react-native-gesture-handler] /home/vishal/monatv/node_modules/react-native-gesture-handler/android/build/intermediates/merged_manifest/debug/AndroidManifest.xml:5:5-7:41
MERGED from [:react-native-gesture-handler] /home/vishal/monatv/node_modules/react-native-gesture-handler/android/build/intermediates/merged_manifest/debug/AndroidManifest.xml:5:5-7:41
MERGED from [:react-native-safe-area-context] /home/vishal/monatv/node_modules/react-native-safe-area-context/android/build/intermediates/merged_manifest/debug/AndroidManifest.xml:5:5-7:41
MERGED from [:react-native-safe-area-context] /home/vishal/monatv/node_modules/react-native-safe-area-context/android/build/intermediates/merged_manifest/debug/AndroidManifest.xml:5:5-7:41
MERGED from [:react-native-screens] /home/vishal/monatv/node_modules/react-native-screens/android/build/intermediates/merged_manifest/debug/AndroidManifest.xml:5:5-7:41
MERGED from [:react-native-screens] /home/vishal/monatv/node_modules/react-native-screens/android/build/intermediates/merged_manifest/debug/AndroidManifest.xml:5:5-7:41
MERGED from [:react-native-splash-screen] /home/vishal/monatv/node_modules/react-native-splash-screen/android/build/intermediates/merged_manifest/debug/AndroidManifest.xml:5:5-7:41
MERGED from [:react-native-splash-screen] /home/vishal/monatv/node_modules/react-native-splash-screen/android/build/intermediates/merged_manifest/debug/AndroidManifest.xml:5:5-7:41
MERGED from [:react-native-vector-icons] /home/vishal/monatv/node_modules/react-native-vector-icons/android/build/intermediates/merged_manifest/debug/AndroidManifest.xml:5:5-7:41
MERGED from [:react-native-vector-icons] /home/vishal/monatv/node_modules/react-native-vector-icons/android/build/intermediates/merged_manifest/debug/AndroidManifest.xml:5:5-7:41
MERGED from [:react-native-video] /home/vishal/monatv/node_modules/react-native-video/android/build/intermediates/merged_manifest/debug/AndroidManifest.xml:5:5-7:41
MERGED from [:react-native-video] /home/vishal/monatv/node_modules/react-native-video/android/build/intermediates/merged_manifest/debug/AndroidManifest.xml:5:5-7:41
MERGED from [com.facebook.react:react-native:0.70.2] /home/vishal/.gradle/caches/transforms-3/790d0e301814aa39d1ebcac266155cf1/transformed/jetified-react-native-0.70.2-debug/AndroidManifest.xml:5:5-7:41
MERGED from [com.facebook.react:react-native:0.70.2] /home/vishal/.gradle/caches/transforms-3/790d0e301814aa39d1ebcac266155cf1/transformed/jetified-react-native-0.70.2-debug/AndroidManifest.xml:5:5-7:41
MERGED from [androidx.swiperefreshlayout:swiperefreshlayout:1.0.0] /home/vishal/.gradle/caches/transforms-3/4aa3daa4c119e5ebf154ad11d072f485/transformed/swiperefreshlayout-1.0.0/AndroidManifest.xml:20:5-44
MERGED from [androidx.swiperefreshlayout:swiperefreshlayout:1.0.0] /home/vishal/.gradle/caches/transforms-3/4aa3daa4c119e5ebf154ad11d072f485/transformed/swiperefreshlayout-1.0.0/AndroidManifest.xml:20:5-44
MERGED from [com.facebook.react:hermes-engine:0.70.2] /home/vishal/.gradle/caches/transforms-3/2b865d476676e9439292fd1bc9932a11/transformed/jetified-hermes-engine-0.70.2-debug/AndroidManifest.xml:5:5-7:41
MERGED from [com.facebook.react:hermes-engine:0.70.2] /home/vishal/.gradle/caches/transforms-3/2b865d476676e9439292fd1bc9932a11/transformed/jetified-hermes-engine-0.70.2-debug/AndroidManifest.xml:5:5-7:41
MERGED from [com.facebook.fresco:flipper:2.6.0] /home/vishal/.gradle/caches/transforms-3/254be36e6f6eb176e072fd687d368667/transformed/jetified-flipper-2.6.0/AndroidManifest.xml:5:5-7:41
MERGED from [com.facebook.fresco:flipper:2.6.0] /home/vishal/.gradle/caches/transforms-3/254be36e6f6eb176e072fd687d368667/transformed/jetified-flipper-2.6.0/AndroidManifest.xml:5:5-7:41
MERGED from [com.facebook.fresco:stetho:2.6.0] /home/vishal/.gradle/caches/transforms-3/e90babe485946eeebe0b18572938e7fb/transformed/jetified-stetho-2.6.0/AndroidManifest.xml:5:5-7:41
MERGED from [com.facebook.fresco:stetho:2.6.0] /home/vishal/.gradle/caches/transforms-3/e90babe485946eeebe0b18572938e7fb/transformed/jetified-stetho-2.6.0/AndroidManifest.xml:5:5-7:41
MERGED from [com.facebook.fresco:fresco:2.6.0] /home/vishal/.gradle/caches/transforms-3/6bf0185b9b85a5b617e433ea49b9063b/transformed/jetified-fresco-2.6.0/AndroidManifest.xml:5:5-7:41
MERGED from [com.facebook.fresco:fresco:2.6.0] /home/vishal/.gradle/caches/transforms-3/6bf0185b9b85a5b617e433ea49b9063b/transformed/jetified-fresco-2.6.0/AndroidManifest.xml:5:5-7:41
MERGED from [com.facebook.fresco:soloader:2.6.0] /home/vishal/.gradle/caches/transforms-3/9a33d8868af3aea4332afd8d8efc6348/transformed/jetified-soloader-2.6.0/AndroidManifest.xml:5:5-7:41
MERGED from [com.facebook.fresco:soloader:2.6.0] /home/vishal/.gradle/caches/transforms-3/9a33d8868af3aea4332afd8d8efc6348/transformed/jetified-soloader-2.6.0/AndroidManifest.xml:5:5-7:41
MERGED from [com.facebook.fresco:imagepipeline-okhttp3:2.5.0] /home/vishal/.gradle/caches/transforms-3/22d07d704840d6ac26d9e3ea7e6138f8/transformed/jetified-imagepipeline-okhttp3-2.5.0/AndroidManifest.xml:5:5-7:41
MERGED from [com.facebook.fresco:imagepipeline-okhttp3:2.5.0] /home/vishal/.gradle/caches/transforms-3/22d07d704840d6ac26d9e3ea7e6138f8/transformed/jetified-imagepipeline-okhttp3-2.5.0/AndroidManifest.xml:5:5-7:41
MERGED from [com.facebook.fresco:drawee:2.6.0] /home/vishal/.gradle/caches/transforms-3/8fac770e659683206d28c35b067abb41/transformed/jetified-drawee-2.6.0/AndroidManifest.xml:5:5-7:41
MERGED from [com.facebook.fresco:drawee:2.6.0] /home/vishal/.gradle/caches/transforms-3/8fac770e659683206d28c35b067abb41/transformed/jetified-drawee-2.6.0/AndroidManifest.xml:5:5-7:41
MERGED from [com.facebook.fresco:nativeimagefilters:2.6.0] /home/vishal/.gradle/caches/transforms-3/fcf5922547be963eb521befd316515e0/transformed/jetified-nativeimagefilters-2.6.0/AndroidManifest.xml:5:5-7:41
MERGED from [com.facebook.fresco:nativeimagefilters:2.6.0] /home/vishal/.gradle/caches/transforms-3/fcf5922547be963eb521befd316515e0/transformed/jetified-nativeimagefilters-2.6.0/AndroidManifest.xml:5:5-7:41
MERGED from [com.facebook.fresco:memory-type-native:2.6.0] /home/vishal/.gradle/caches/transforms-3/067e91612de0a20035490a44ac8dc3c7/transformed/jetified-memory-type-native-2.6.0/AndroidManifest.xml:5:5-7:41
MERGED from [com.facebook.fresco:memory-type-native:2.6.0] /home/vishal/.gradle/caches/transforms-3/067e91612de0a20035490a44ac8dc3c7/transformed/jetified-memory-type-native-2.6.0/AndroidManifest.xml:5:5-7:41
MERGED from [com.facebook.fresco:memory-type-java:2.6.0] /home/vishal/.gradle/caches/transforms-3/b4c05aa9a6cbb25b1c515185d2c85583/transformed/jetified-memory-type-java-2.6.0/AndroidManifest.xml:5:5-7:41
MERGED from [com.facebook.fresco:memory-type-java:2.6.0] /home/vishal/.gradle/caches/transforms-3/b4c05aa9a6cbb25b1c515185d2c85583/transformed/jetified-memory-type-java-2.6.0/AndroidManifest.xml:5:5-7:41
MERGED from [com.facebook.fresco:imagepipeline-native:2.6.0] /home/vishal/.gradle/caches/transforms-3/e9cfcf9cad320d2caa4d9a333e6e6c64/transformed/jetified-imagepipeline-native-2.6.0/AndroidManifest.xml:5:5-7:41
MERGED from [com.facebook.fresco:imagepipeline-native:2.6.0] /home/vishal/.gradle/caches/transforms-3/e9cfcf9cad320d2caa4d9a333e6e6c64/transformed/jetified-imagepipeline-native-2.6.0/AndroidManifest.xml:5:5-7:41
MERGED from [com.facebook.soloader:soloader:0.10.4] /home/vishal/.gradle/caches/transforms-3/87826452408345e9fcde9828ee0fb34c/transformed/jetified-soloader-0.10.4/AndroidManifest.xml:7:5-9:41
MERGED from [com.facebook.soloader:soloader:0.10.4] /home/vishal/.gradle/caches/transforms-3/87826452408345e9fcde9828ee0fb34c/transformed/jetified-soloader-0.10.4/AndroidManifest.xml:7:5-9:41
MERGED from [com.facebook.fresco:memory-type-ashmem:2.6.0] /home/vishal/.gradle/caches/transforms-3/7bcdddc034b6a41f9f59e18f82d27a2a/transformed/jetified-memory-type-ashmem-2.6.0/AndroidManifest.xml:5:5-7:41
MERGED from [com.facebook.fresco:memory-type-ashmem:2.6.0] /home/vishal/.gradle/caches/transforms-3/7bcdddc034b6a41f9f59e18f82d27a2a/transformed/jetified-memory-type-ashmem-2.6.0/AndroidManifest.xml:5:5-7:41
MERGED from [com.facebook.fresco:imagepipeline:2.6.0] /home/vishal/.gradle/caches/transforms-3/f12e9d58f545dc528f5c5d303fc2b907/transformed/jetified-imagepipeline-2.6.0/AndroidManifest.xml:5:5-7:41
MERGED from [com.facebook.fresco:imagepipeline:2.6.0] /home/vishal/.gradle/caches/transforms-3/f12e9d58f545dc528f5c5d303fc2b907/transformed/jetified-imagepipeline-2.6.0/AndroidManifest.xml:5:5-7:41
MERGED from [com.facebook.fresco:nativeimagetranscoder:2.6.0] /home/vishal/.gradle/caches/transforms-3/72898a632139019e38bc9fa5121bc1f7/transformed/jetified-nativeimagetranscoder-2.6.0/AndroidManifest.xml:5:5-7:41
MERGED from [com.facebook.fresco:nativeimagetranscoder:2.6.0] /home/vishal/.gradle/caches/transforms-3/72898a632139019e38bc9fa5121bc1f7/transformed/jetified-nativeimagetranscoder-2.6.0/AndroidManifest.xml:5:5-7:41
MERGED from [com.facebook.fresco:imagepipeline-base:2.6.0] /home/vishal/.gradle/caches/transforms-3/1d1edd6ff4f1a69fd6c2a9b7b9361b66/transformed/jetified-imagepipeline-base-2.6.0/AndroidManifest.xml:5:5-7:41
MERGED from [com.facebook.fresco:imagepipeline-base:2.6.0] /home/vishal/.gradle/caches/transforms-3/1d1edd6ff4f1a69fd6c2a9b7b9361b66/transformed/jetified-imagepipeline-base-2.6.0/AndroidManifest.xml:5:5-7:41
MERGED from [com.google.android.material:material:1.1.0] /home/vishal/.gradle/caches/transforms-3/ff7f9e1ea9c2e709fffb9e018f2252cf/transformed/material-1.1.0/AndroidManifest.xml:20:5-44
MERGED from [com.google.android.material:material:1.1.0] /home/vishal/.gradle/caches/transforms-3/ff7f9e1ea9c2e709fffb9e018f2252cf/transformed/material-1.1.0/AndroidManifest.xml:20:5-44
MERGED from [com.github.adityaxjha:Android-ScalableVideoView:10e7b4da8b] /home/vishal/.gradle/caches/transforms-3/f83bbd89bc36ef940c4b627af7bf4a87/transformed/jetified-Android-ScalableVideoView-10e7b4da8b/AndroidManifest.xml:5:5-7:41
MERGED from [com.github.adityaxjha:Android-ScalableVideoView:10e7b4da8b] /home/vishal/.gradle/caches/transforms-3/f83bbd89bc36ef940c4b627af7bf4a87/transformed/jetified-Android-ScalableVideoView-10e7b4da8b/AndroidManifest.xml:5:5-7:41
MERGED from [androidx.appcompat:appcompat:1.4.1] /home/vishal/.gradle/caches/transforms-3/1b40e4574e76bff5831ef4bf4270480d/transformed/appcompat-1.4.1/AndroidManifest.xml:20:5-22:41
MERGED from [androidx.appcompat:appcompat:1.4.1] /home/vishal/.gradle/caches/transforms-3/1b40e4574e76bff5831ef4bf4270480d/transformed/appcompat-1.4.1/AndroidManifest.xml:20:5-22:41
MERGED from [androidx.sqlite:sqlite-framework:2.1.0] /home/vishal/.gradle/caches/transforms-3/7aa95ea95f7888771eaaf73aa7600b26/transformed/sqlite-framework-2.1.0/AndroidManifest.xml:20:5-22:41
MERGED from [androidx.sqlite:sqlite-framework:2.1.0] /home/vishal/.gradle/caches/transforms-3/7aa95ea95f7888771eaaf73aa7600b26/transformed/sqlite-framework-2.1.0/AndroidManifest.xml:20:5-22:41
MERGED from [androidx.appcompat:appcompat-resources:1.4.1] /home/vishal/.gradle/caches/transforms-3/25ca79b7ef1a689e48a9ba2099d7ac89/transformed/jetified-appcompat-resources-1.4.1/AndroidManifest.xml:20:5-22:41
MERGED from [androidx.appcompat:appcompat-resources:1.4.1] /home/vishal/.gradle/caches/transforms-3/25ca79b7ef1a689e48a9ba2099d7ac89/transformed/jetified-appcompat-resources-1.4.1/AndroidManifest.xml:20:5-22:41
MERGED from [androidx.autofill:autofill:1.1.0] /home/vishal/.gradle/caches/transforms-3/a6ec09d3f9a35c2cdb66c074ce2dc724/transformed/jetified-autofill-1.1.0/AndroidManifest.xml:20:5-22:41
MERGED from [androidx.autofill:autofill:1.1.0] /home/vishal/.gradle/caches/transforms-3/a6ec09d3f9a35c2cdb66c074ce2dc724/transformed/jetified-autofill-1.1.0/AndroidManifest.xml:20:5-22:41
MERGED from [com.facebook.fresco:middleware:2.6.0] /home/vishal/.gradle/caches/transforms-3/1e511b444fe8c64b6848818df0a1bc53/transformed/jetified-middleware-2.6.0/AndroidManifest.xml:5:5-7:41
MERGED from [com.facebook.fresco:middleware:2.6.0] /home/vishal/.gradle/caches/transforms-3/1e511b444fe8c64b6848818df0a1bc53/transformed/jetified-middleware-2.6.0/AndroidManifest.xml:5:5-7:41
MERGED from [com.facebook.fresco:ui-common:2.6.0] /home/vishal/.gradle/caches/transforms-3/d85baf65d8e804b63b1f40f71e53e2c4/transformed/jetified-ui-common-2.6.0/AndroidManifest.xml:5:5-7:41
MERGED from [com.facebook.fresco:ui-common:2.6.0] /home/vishal/.gradle/caches/transforms-3/d85baf65d8e804b63b1f40f71e53e2c4/transformed/jetified-ui-common-2.6.0/AndroidManifest.xml:5:5-7:41
MERGED from [androidx.vectordrawable:vectordrawable-animated:1.1.0] /home/vishal/.gradle/caches/transforms-3/c66a0e494ae03615f4f2412eca3a7dd2/transformed/vectordrawable-animated-1.1.0/AndroidManifest.xml:20:5-22:41
MERGED from [androidx.vectordrawable:vectordrawable-animated:1.1.0] /home/vishal/.gradle/caches/transforms-3/c66a0e494ae03615f4f2412eca3a7dd2/transformed/vectordrawable-animated-1.1.0/AndroidManifest.xml:20:5-22:41
MERGED from [androidx.interpolator:interpolator:1.0.0] /home/vishal/.gradle/caches/transforms-3/859aeea425ecb1c9af8d15503a5ef58a/transformed/interpolator-1.0.0/AndroidManifest.xml:20:5-44
MERGED from [androidx.interpolator:interpolator:1.0.0] /home/vishal/.gradle/caches/transforms-3/859aeea425ecb1c9af8d15503a5ef58a/transformed/interpolator-1.0.0/AndroidManifest.xml:20:5-44
MERGED from [androidx.core:core-ktx:1.6.0] /home/vishal/.gradle/caches/transforms-3/9644fb1c4cab9aa0d403c9f34e6ea78e/transformed/jetified-core-ktx-1.6.0/AndroidManifest.xml:5:5-7:41
MERGED from [androidx.core:core-ktx:1.6.0] /home/vishal/.gradle/caches/transforms-3/9644fb1c4cab9aa0d403c9f34e6ea78e/transformed/jetified-core-ktx-1.6.0/AndroidManifest.xml:5:5-7:41
MERGED from [androidx.coordinatorlayout:coordinatorlayout:1.1.0] /home/vishal/.gradle/caches/transforms-3/499913aa779d5677f84de1b3821854aa/transformed/coordinatorlayout-1.1.0/AndroidManifest.xml:20:5-22:41
MERGED from [androidx.coordinatorlayout:coordinatorlayout:1.1.0] /home/vishal/.gradle/caches/transforms-3/499913aa779d5677f84de1b3821854aa/transformed/coordinatorlayout-1.1.0/AndroidManifest.xml:20:5-22:41
MERGED from [androidx.sqlite:sqlite:2.1.0] /home/vishal/.gradle/caches/transforms-3/6c2e0b04a335666cd4b78cb912868b2a/transformed/sqlite-2.1.0/AndroidManifest.xml:20:5-22:41
MERGED from [androidx.sqlite:sqlite:2.1.0] /home/vishal/.gradle/caches/transforms-3/6c2e0b04a335666cd4b78cb912868b2a/transformed/sqlite-2.1.0/AndroidManifest.xml:20:5-22:41
MERGED from [com.google.android.gms:play-services-iid:17.0.0] /home/vishal/.gradle/caches/transforms-3/89eb40e51d9a03750fe3a25c96373511/transformed/jetified-play-services-iid-17.0.0/AndroidManifest.xml:20:5-44
MERGED from [com.google.android.gms:play-services-iid:17.0.0] /home/vishal/.gradle/caches/transforms-3/89eb40e51d9a03750fe3a25c96373511/transformed/jetified-play-services-iid-17.0.0/AndroidManifest.xml:20:5-44
MERGED from [com.google.android.gms:play-services-base:17.0.0] /home/vishal/.gradle/caches/transforms-3/37f8ffa3ec488a48f4844b49ea25bc5d/transformed/jetified-play-services-base-17.0.0/AndroidManifest.xml:20:5-44
MERGED from [com.google.android.gms:play-services-base:17.0.0] /home/vishal/.gradle/caches/transforms-3/37f8ffa3ec488a48f4844b49ea25bc5d/transformed/jetified-play-services-base-17.0.0/AndroidManifest.xml:20:5-44
MERGED from [com.google.android.gms:play-services-stats:17.0.0] /home/vishal/.gradle/caches/transforms-3/b4238051cdef5491a766d1f00f673d73/transformed/jetified-play-services-stats-17.0.0/AndroidManifest.xml:5:5-44
MERGED from [com.google.android.gms:play-services-stats:17.0.0] /home/vishal/.gradle/caches/transforms-3/b4238051cdef5491a766d1f00f673d73/transformed/jetified-play-services-stats-17.0.0/AndroidManifest.xml:5:5-44
MERGED from [com.google.android.gms:play-services-tasks:17.0.0] /home/vishal/.gradle/caches/transforms-3/53b5bd42f3e67d38a82c9d9b3bfba244/transformed/jetified-play-services-tasks-17.0.0/AndroidManifest.xml:5:5-44
MERGED from [com.google.android.gms:play-services-tasks:17.0.0] /home/vishal/.gradle/caches/transforms-3/53b5bd42f3e67d38a82c9d9b3bfba244/transformed/jetified-play-services-tasks-17.0.0/AndroidManifest.xml:5:5-44
MERGED from [com.google.android.gms:play-services-basement:17.0.0] /home/vishal/.gradle/caches/transforms-3/c0b86808731a4a9f10bb9c1bec75b274/transformed/jetified-play-services-basement-17.0.0/AndroidManifest.xml:20:5-44
MERGED from [com.google.android.gms:play-services-basement:17.0.0] /home/vishal/.gradle/caches/transforms-3/c0b86808731a4a9f10bb9c1bec75b274/transformed/jetified-play-services-basement-17.0.0/AndroidManifest.xml:20:5-44
MERGED from [androidx.viewpager2:viewpager2:1.0.0] /home/vishal/.gradle/caches/transforms-3/237960ca1607edccd2d98c15f52b2dce/transformed/jetified-viewpager2-1.0.0/AndroidManifest.xml:20:5-22:41
MERGED from [androidx.viewpager2:viewpager2:1.0.0] /home/vishal/.gradle/caches/transforms-3/237960ca1607edccd2d98c15f52b2dce/transformed/jetified-viewpager2-1.0.0/AndroidManifest.xml:20:5-22:41
MERGED from [androidx.fragment:fragment:1.3.6] /home/vishal/.gradle/caches/transforms-3/d7aa1f198091ea1cc50dc1c26600633f/transformed/fragment-1.3.6/AndroidManifest.xml:20:5-22:41
MERGED from [androidx.fragment:fragment:1.3.6] /home/vishal/.gradle/caches/transforms-3/d7aa1f198091ea1cc50dc1c26600633f/transformed/fragment-1.3.6/AndroidManifest.xml:20:5-22:41
MERGED from [androidx.activity:activity:1.2.4] /home/vishal/.gradle/caches/transforms-3/93b2272f240cad8e035912fc59023723/transformed/jetified-activity-1.2.4/AndroidManifest.xml:20:5-22:41
MERGED from [androidx.activity:activity:1.2.4] /home/vishal/.gradle/caches/transforms-3/93b2272f240cad8e035912fc59023723/transformed/jetified-activity-1.2.4/AndroidManifest.xml:20:5-22:41
MERGED from [androidx.drawerlayout:drawerlayout:1.0.0] /home/vishal/.gradle/caches/transforms-3/69908e7aabb5f8e8c96016d7080edb0b/transformed/drawerlayout-1.0.0/AndroidManifest.xml:20:5-44
MERGED from [androidx.drawerlayout:drawerlayout:1.0.0] /home/vishal/.gradle/caches/transforms-3/69908e7aabb5f8e8c96016d7080edb0b/transformed/drawerlayout-1.0.0/AndroidManifest.xml:20:5-44
MERGED from [androidx.emoji2:emoji2-views-helper:1.0.0] /home/vishal/.gradle/caches/transforms-3/649b06ba711978c865b75aec65373f65/transformed/jetified-emoji2-views-helper-1.0.0/AndroidManifest.xml:20:5-22:41
MERGED from [androidx.emoji2:emoji2-views-helper:1.0.0] /home/vishal/.gradle/caches/transforms-3/649b06ba711978c865b75aec65373f65/transformed/jetified-emoji2-views-helper-1.0.0/AndroidManifest.xml:20:5-22:41
MERGED from [androidx.emoji2:emoji2:1.0.0] /home/vishal/.gradle/caches/transforms-3/b6fe4da57007a43d86a66ba4c66459bd/transformed/jetified-emoji2-1.0.0/AndroidManifest.xml:21:5-23:41
MERGED from [androidx.emoji2:emoji2:1.0.0] /home/vishal/.gradle/caches/transforms-3/b6fe4da57007a43d86a66ba4c66459bd/transformed/jetified-emoji2-1.0.0/AndroidManifest.xml:21:5-23:41
MERGED from [androidx.vectordrawable:vectordrawable:1.1.0] /home/vishal/.gradle/caches/transforms-3/5485ed2b9a71c62e22c1219fe73818e6/transformed/vectordrawable-1.1.0/AndroidManifest.xml:20:5-22:41
MERGED from [androidx.vectordrawable:vectordrawable:1.1.0] /home/vishal/.gradle/caches/transforms-3/5485ed2b9a71c62e22c1219fe73818e6/transformed/vectordrawable-1.1.0/AndroidManifest.xml:20:5-22:41
MERGED from [androidx.viewpager:viewpager:1.0.0] /home/vishal/.gradle/caches/transforms-3/54674ed73524b1962b330547fa9e7fbc/transformed/viewpager-1.0.0/AndroidManifest.xml:20:5-44
MERGED from [androidx.viewpager:viewpager:1.0.0] /home/vishal/.gradle/caches/transforms-3/54674ed73524b1962b330547fa9e7fbc/transformed/viewpager-1.0.0/AndroidManifest.xml:20:5-44
MERGED from [androidx.recyclerview:recyclerview:1.1.0] /home/vishal/.gradle/caches/transforms-3/cf79e2e10938f670193b7a1a75260249/transformed/recyclerview-1.1.0/AndroidManifest.xml:20:5-22:41
MERGED from [androidx.recyclerview:recyclerview:1.1.0] /home/vishal/.gradle/caches/transforms-3/cf79e2e10938f670193b7a1a75260249/transformed/recyclerview-1.1.0/AndroidManifest.xml:20:5-22:41
MERGED from [androidx.customview:customview:1.0.0] /home/vishal/.gradle/caches/transforms-3/2c00fb4e8cc43a34d9961315839c8c84/transformed/customview-1.0.0/AndroidManifest.xml:20:5-44
MERGED from [androidx.customview:customview:1.0.0] /home/vishal/.gradle/caches/transforms-3/2c00fb4e8cc43a34d9961315839c8c84/transformed/customview-1.0.0/AndroidManifest.xml:20:5-44
MERGED from [androidx.transition:transition:1.2.0] /home/vishal/.gradle/caches/transforms-3/cab5912a28841561c11328a45e4e2bef/transformed/transition-1.2.0/AndroidManifest.xml:20:5-22:41
MERGED from [androidx.transition:transition:1.2.0] /home/vishal/.gradle/caches/transforms-3/cab5912a28841561c11328a45e4e2bef/transformed/transition-1.2.0/AndroidManifest.xml:20:5-22:41
MERGED from [androidx.legacy:legacy-support-core-utils:1.0.0] /home/vishal/.gradle/caches/transforms-3/d85637288b142022521125c7f85e74c4/transformed/legacy-support-core-utils-1.0.0/AndroidManifest.xml:20:5-44
MERGED from [androidx.legacy:legacy-support-core-utils:1.0.0] /home/vishal/.gradle/caches/transforms-3/d85637288b142022521125c7f85e74c4/transformed/legacy-support-core-utils-1.0.0/AndroidManifest.xml:20:5-44
MERGED from [androidx.loader:loader:1.0.0] /home/vishal/.gradle/caches/transforms-3/147d35bca0a0f8eb1ae628cbfc80b3b2/transformed/loader-1.0.0/AndroidManifest.xml:20:5-44
MERGED from [androidx.loader:loader:1.0.0] /home/vishal/.gradle/caches/transforms-3/147d35bca0a0f8eb1ae628cbfc80b3b2/transformed/loader-1.0.0/AndroidManifest.xml:20:5-44
MERGED from [androidx.core:core:1.7.0] /home/vishal/.gradle/caches/transforms-3/63a3df243d2d102452600006144a86df/transformed/core-1.7.0/AndroidManifest.xml:20:5-22:41
MERGED from [androidx.core:core:1.7.0] /home/vishal/.gradle/caches/transforms-3/63a3df243d2d102452600006144a86df/transformed/core-1.7.0/AndroidManifest.xml:20:5-22:41
MERGED from [androidx.cursoradapter:cursoradapter:1.0.0] /home/vishal/.gradle/caches/transforms-3/87ce219c756988d16a49cc9fe4d12962/transformed/cursoradapter-1.0.0/AndroidManifest.xml:20:5-44
MERGED from [androidx.cursoradapter:cursoradapter:1.0.0] /home/vishal/.gradle/caches/transforms-3/87ce219c756988d16a49cc9fe4d12962/transformed/cursoradapter-1.0.0/AndroidManifest.xml:20:5-44
MERGED from [androidx.lifecycle:lifecycle-viewmodel-savedstate:2.3.1] /home/vishal/.gradle/caches/transforms-3/3e847e61051fb1433336e91daf953259/transformed/jetified-lifecycle-viewmodel-savedstate-2.3.1/AndroidManifest.xml:20:5-22:41
MERGED from [androidx.lifecycle:lifecycle-viewmodel-savedstate:2.3.1] /home/vishal/.gradle/caches/transforms-3/3e847e61051fb1433336e91daf953259/transformed/jetified-lifecycle-viewmodel-savedstate-2.3.1/AndroidManifest.xml:20:5-22:41
MERGED from [androidx.savedstate:savedstate:1.1.0] /home/vishal/.gradle/caches/transforms-3/ce9f1e414807aaf172c5918b0e15fa8f/transformed/jetified-savedstate-1.1.0/AndroidManifest.xml:20:5-22:41
MERGED from [androidx.savedstate:savedstate:1.1.0] /home/vishal/.gradle/caches/transforms-3/ce9f1e414807aaf172c5918b0e15fa8f/transformed/jetified-savedstate-1.1.0/AndroidManifest.xml:20:5-22:41
MERGED from [androidx.lifecycle:lifecycle-viewmodel:2.3.1] /home/vishal/.gradle/caches/transforms-3/0bbaa5972f900275fec64cf526ac0bea/transformed/lifecycle-viewmodel-2.3.1/AndroidManifest.xml:20:5-22:41
MERGED from [androidx.lifecycle:lifecycle-viewmodel:2.3.1] /home/vishal/.gradle/caches/transforms-3/0bbaa5972f900275fec64cf526ac0bea/transformed/lifecycle-viewmodel-2.3.1/AndroidManifest.xml:20:5-22:41
MERGED from [androidx.cardview:cardview:1.0.0] /home/vishal/.gradle/caches/transforms-3/3cb37a6faf29ddf73604c194d6dae8fd/transformed/cardview-1.0.0/AndroidManifest.xml:20:5-44
MERGED from [androidx.cardview:cardview:1.0.0] /home/vishal/.gradle/caches/transforms-3/3cb37a6faf29ddf73604c194d6dae8fd/transformed/cardview-1.0.0/AndroidManifest.xml:20:5-44
MERGED from [androidx.versionedparcelable:versionedparcelable:1.1.1] /home/vishal/.gradle/caches/transforms-3/b6f3e7651a74a74278e1a753048bf61a/transformed/versionedparcelable-1.1.1/AndroidManifest.xml:20:5-22:41
MERGED from [androidx.versionedparcelable:versionedparcelable:1.1.1] /home/vishal/.gradle/caches/transforms-3/b6f3e7651a74a74278e1a753048bf61a/transformed/versionedparcelable-1.1.1/AndroidManifest.xml:20:5-22:41
MERGED from [androidx.lifecycle:lifecycle-process:2.4.0] /home/vishal/.gradle/caches/transforms-3/bc74a39e1ea23fea00bfcf2682a93948/transformed/jetified-lifecycle-process-2.4.0/AndroidManifest.xml:21:5-23:41
MERGED from [androidx.lifecycle:lifecycle-process:2.4.0] /home/vishal/.gradle/caches/transforms-3/bc74a39e1ea23fea00bfcf2682a93948/transformed/jetified-lifecycle-process-2.4.0/AndroidManifest.xml:21:5-23:41
MERGED from [androidx.startup:startup-runtime:1.0.0] /home/vishal/.gradle/caches/transforms-3/3e0d478508575b75c79938eb5fb0fb04/transformed/jetified-startup-runtime-1.0.0/AndroidManifest.xml:21:5-23:41
MERGED from [androidx.startup:startup-runtime:1.0.0] /home/vishal/.gradle/caches/transforms-3/3e0d478508575b75c79938eb5fb0fb04/transformed/jetified-startup-runtime-1.0.0/AndroidManifest.xml:21:5-23:41
MERGED from [androidx.tracing:tracing:1.0.0] /home/vishal/.gradle/caches/transforms-3/0f0f5e42aea69d3ef4b498b0dacc0aba/transformed/jetified-tracing-1.0.0/AndroidManifest.xml:20:5-22:41
MERGED from [androidx.tracing:tracing:1.0.0] /home/vishal/.gradle/caches/transforms-3/0f0f5e42aea69d3ef4b498b0dacc0aba/transformed/jetified-tracing-1.0.0/AndroidManifest.xml:20:5-22:41
MERGED from [androidx.lifecycle:lifecycle-livedata:2.0.0] /home/vishal/.gradle/caches/transforms-3/6c8ebe32a5ea13a3f8e5bbe4096d6ca3/transformed/lifecycle-livedata-2.0.0/AndroidManifest.xml:20:5-44
MERGED from [androidx.lifecycle:lifecycle-livedata:2.0.0] /home/vishal/.gradle/caches/transforms-3/6c8ebe32a5ea13a3f8e5bbe4096d6ca3/transformed/lifecycle-livedata-2.0.0/AndroidManifest.xml:20:5-44
MERGED from [androidx.lifecycle:lifecycle-livedata-core:2.3.1] /home/vishal/.gradle/caches/transforms-3/c5f7e926f38f52b0a9f87d57ff260610/transformed/lifecycle-livedata-core-2.3.1/AndroidManifest.xml:20:5-22:41
MERGED from [androidx.lifecycle:lifecycle-livedata-core:2.3.1] /home/vishal/.gradle/caches/transforms-3/c5f7e926f38f52b0a9f87d57ff260610/transformed/lifecycle-livedata-core-2.3.1/AndroidManifest.xml:20:5-22:41
MERGED from [androidx.lifecycle:lifecycle-runtime:2.4.0] /home/vishal/.gradle/caches/transforms-3/4e5f2ec05243774aa7a6d3ac597ca78a/transformed/lifecycle-runtime-2.4.0/AndroidManifest.xml:20:5-22:41
MERGED from [androidx.lifecycle:lifecycle-runtime:2.4.0] /home/vishal/.gradle/caches/transforms-3/4e5f2ec05243774aa7a6d3ac597ca78a/transformed/lifecycle-runtime-2.4.0/AndroidManifest.xml:20:5-22:41
MERGED from [androidx.arch.core:core-runtime:2.1.0] /home/vishal/.gradle/caches/transforms-3/264bfea9cec9553b72567ddd2a81a286/transformed/core-runtime-2.1.0/AndroidManifest.xml:20:5-22:41
MERGED from [androidx.arch.core:core-runtime:2.1.0] /home/vishal/.gradle/caches/transforms-3/264bfea9cec9553b72567ddd2a81a286/transformed/core-runtime-2.1.0/AndroidManifest.xml:20:5-22:41
MERGED from [androidx.documentfile:documentfile:1.0.0] /home/vishal/.gradle/caches/transforms-3/806eac4852f109b813bc70ce28c2490e/transformed/documentfile-1.0.0/AndroidManifest.xml:20:5-44
MERGED from [androidx.documentfile:documentfile:1.0.0] /home/vishal/.gradle/caches/transforms-3/806eac4852f109b813bc70ce28c2490e/transformed/documentfile-1.0.0/AndroidManifest.xml:20:5-44
MERGED from [androidx.localbroadcastmanager:localbroadcastmanager:1.0.0] /home/vishal/.gradle/caches/transforms-3/c5631a9198c91087e2781cc099ce3c49/transformed/localbroadcastmanager-1.0.0/AndroidManifest.xml:20:5-44
MERGED from [androidx.localbroadcastmanager:localbroadcastmanager:1.0.0] /home/vishal/.gradle/caches/transforms-3/c5631a9198c91087e2781cc099ce3c49/transformed/localbroadcastmanager-1.0.0/AndroidManifest.xml:20:5-44
MERGED from [androidx.print:print:1.0.0] /home/vishal/.gradle/caches/transforms-3/0bf5b5943b3bd88b7b8a598e0e83c637/transformed/print-1.0.0/AndroidManifest.xml:20:5-44
MERGED from [androidx.print:print:1.0.0] /home/vishal/.gradle/caches/transforms-3/0bf5b5943b3bd88b7b8a598e0e83c637/transformed/print-1.0.0/AndroidManifest.xml:20:5-44
MERGED from [com.android.installreferrer:installreferrer:1.1.2] /home/vishal/.gradle/caches/transforms-3/318328e3183509abffbee01fc4efd067/transformed/jetified-installreferrer-1.1.2/AndroidManifest.xml:5:5-7:41
MERGED from [com.android.installreferrer:installreferrer:1.1.2] /home/vishal/.gradle/caches/transforms-3/318328e3183509abffbee01fc4efd067/transformed/jetified-installreferrer-1.1.2/AndroidManifest.xml:5:5-7:41
MERGED from [com.facebook.fresco:fbcore:2.6.0] /home/vishal/.gradle/caches/transforms-3/fe525e62d2b9e85c0d777a0bb14f7298/transformed/jetified-fbcore-2.6.0/AndroidManifest.xml:5:5-7:41
MERGED from [com.facebook.fresco:fbcore:2.6.0] /home/vishal/.gradle/caches/transforms-3/fe525e62d2b9e85c0d777a0bb14f7298/transformed/jetified-fbcore-2.6.0/AndroidManifest.xml:5:5-7:41
MERGED from [androidx.annotation:annotation-experimental:1.1.0] /home/vishal/.gradle/caches/transforms-3/54294f5f857978835a11e24fc1422778/transformed/jetified-annotation-experimental-1.1.0/AndroidManifest.xml:20:5-22:41
MERGED from [androidx.annotation:annotation-experimental:1.1.0] /home/vishal/.gradle/caches/transforms-3/54294f5f857978835a11e24fc1422778/transformed/jetified-annotation-experimental-1.1.0/AndroidManifest.xml:20:5-22:41
INJECTED from /home/vishal/monatv/android/app/src/debug/AndroidManifest.xml
INJECTED from /home/vishal/monatv/android/app/src/debug/AndroidManifest.xml
	android:targetSdkVersion
		INJECTED from /home/vishal/monatv/android/app/src/main/AndroidManifest.xml
		INJECTED from /home/vishal/monatv/android/app/src/debug/AndroidManifest.xml
	android:minSdkVersion
		INJECTED from /home/vishal/monatv/android/app/src/main/AndroidManifest.xml
		INJECTED from /home/vishal/monatv/android/app/src/debug/AndroidManifest.xml
uses-permission#android.permission.WAKE_LOCK
ADDED from [:react-native-blob-util] /home/vishal/monatv/node_modules/react-native-blob-util/android/build/intermediates/merged_manifest/debug/AndroidManifest.xml:16:5-68
	android:name
		ADDED from [:react-native-blob-util] /home/vishal/monatv/node_modules/react-native-blob-util/android/build/intermediates/merged_manifest/debug/AndroidManifest.xml:16:22-65
uses-permission#android.permission.ACCESS_NETWORK_STATE
ADDED from [:react-native-blob-util] /home/vishal/monatv/node_modules/react-native-blob-util/android/build/intermediates/merged_manifest/debug/AndroidManifest.xml:22:5-79
	android:name
		ADDED from [:react-native-blob-util] /home/vishal/monatv/node_modules/react-native-blob-util/android/build/intermediates/merged_manifest/debug/AndroidManifest.xml:22:22-76
provider#com.ReactNativeBlobUtil.Utils.FileProvider
ADDED from [:react-native-blob-util] /home/vishal/monatv/node_modules/react-native-blob-util/android/build/intermediates/merged_manifest/debug/AndroidManifest.xml:37:9-45:20
	android:grantUriPermissions
		ADDED from [:react-native-blob-util] /home/vishal/monatv/node_modules/react-native-blob-util/android/build/intermediates/merged_manifest/debug/AndroidManifest.xml:41:13-47
	android:authorities
		ADDED from [:react-native-blob-util] /home/vishal/monatv/node_modules/react-native-blob-util/android/build/intermediates/merged_manifest/debug/AndroidManifest.xml:39:13-60
	android:exported
		ADDED from [:react-native-blob-util] /home/vishal/monatv/node_modules/react-native-blob-util/android/build/intermediates/merged_manifest/debug/AndroidManifest.xml:40:13-37
	android:name
		ADDED from [:react-native-blob-util] /home/vishal/monatv/node_modules/react-native-blob-util/android/build/intermediates/merged_manifest/debug/AndroidManifest.xml:38:13-70
meta-data#android.support.FILE_PROVIDER_PATHS
ADDED from [:react-native-blob-util] /home/vishal/monatv/node_modules/react-native-blob-util/android/build/intermediates/merged_manifest/debug/AndroidManifest.xml:42:13-44:58
	android:resource
		ADDED from [:react-native-blob-util] /home/vishal/monatv/node_modules/react-native-blob-util/android/build/intermediates/merged_manifest/debug/AndroidManifest.xml:44:17-55
	android:name
		ADDED from [:react-native-blob-util] /home/vishal/monatv/node_modules/react-native-blob-util/android/build/intermediates/merged_manifest/debug/AndroidManifest.xml:43:17-67
uses-permission#com.google.android.c2dm.permission.RECEIVE
ADDED from [com.google.android.gms:play-services-iid:17.0.0] /home/vishal/.gradle/caches/transforms-3/89eb40e51d9a03750fe3a25c96373511/transformed/jetified-play-services-iid-17.0.0/AndroidManifest.xml:23:5-82
	android:name
		ADDED from [com.google.android.gms:play-services-iid:17.0.0] /home/vishal/.gradle/caches/transforms-3/89eb40e51d9a03750fe3a25c96373511/transformed/jetified-play-services-iid-17.0.0/AndroidManifest.xml:23:22-79
activity#com.google.android.gms.common.api.GoogleApiActivity
ADDED from [com.google.android.gms:play-services-base:17.0.0] /home/vishal/.gradle/caches/transforms-3/37f8ffa3ec488a48f4844b49ea25bc5d/transformed/jetified-play-services-base-17.0.0/AndroidManifest.xml:23:9-26:75
	android:exported
		ADDED from [com.google.android.gms:play-services-base:17.0.0] /home/vishal/.gradle/caches/transforms-3/37f8ffa3ec488a48f4844b49ea25bc5d/transformed/jetified-play-services-base-17.0.0/AndroidManifest.xml:25:13-37
	android:theme
		ADDED from [com.google.android.gms:play-services-base:17.0.0] /home/vishal/.gradle/caches/transforms-3/37f8ffa3ec488a48f4844b49ea25bc5d/transformed/jetified-play-services-base-17.0.0/AndroidManifest.xml:26:13-72
	android:name
		ADDED from [com.google.android.gms:play-services-base:17.0.0] /home/vishal/.gradle/caches/transforms-3/37f8ffa3ec488a48f4844b49ea25bc5d/transformed/jetified-play-services-base-17.0.0/AndroidManifest.xml:24:13-79
meta-data#com.google.android.gms.version
ADDED from [com.google.android.gms:play-services-basement:17.0.0] /home/vishal/.gradle/caches/transforms-3/c0b86808731a4a9f10bb9c1bec75b274/transformed/jetified-play-services-basement-17.0.0/AndroidManifest.xml:23:9-25:69
	android:value
		ADDED from [com.google.android.gms:play-services-basement:17.0.0] /home/vishal/.gradle/caches/transforms-3/c0b86808731a4a9f10bb9c1bec75b274/transformed/jetified-play-services-basement-17.0.0/AndroidManifest.xml:25:13-66
	android:name
		ADDED from [com.google.android.gms:play-services-basement:17.0.0] /home/vishal/.gradle/caches/transforms-3/c0b86808731a4a9f10bb9c1bec75b274/transformed/jetified-play-services-basement-17.0.0/AndroidManifest.xml:24:13-58
provider#androidx.startup.InitializationProvider
ADDED from [androidx.emoji2:emoji2:1.0.0] /home/vishal/.gradle/caches/transforms-3/b6fe4da57007a43d86a66ba4c66459bd/transformed/jetified-emoji2-1.0.0/AndroidManifest.xml:26:9-34:20
MERGED from [androidx.lifecycle:lifecycle-process:2.4.0] /home/vishal/.gradle/caches/transforms-3/bc74a39e1ea23fea00bfcf2682a93948/transformed/jetified-lifecycle-process-2.4.0/AndroidManifest.xml:26:9-34:20
MERGED from [androidx.lifecycle:lifecycle-process:2.4.0] /home/vishal/.gradle/caches/transforms-3/bc74a39e1ea23fea00bfcf2682a93948/transformed/jetified-lifecycle-process-2.4.0/AndroidManifest.xml:26:9-34:20
MERGED from [androidx.startup:startup-runtime:1.0.0] /home/vishal/.gradle/caches/transforms-3/3e0d478508575b75c79938eb5fb0fb04/transformed/jetified-startup-runtime-1.0.0/AndroidManifest.xml:26:9-30:34
MERGED from [androidx.startup:startup-runtime:1.0.0] /home/vishal/.gradle/caches/transforms-3/3e0d478508575b75c79938eb5fb0fb04/transformed/jetified-startup-runtime-1.0.0/AndroidManifest.xml:26:9-30:34
	tools:node
		ADDED from [androidx.emoji2:emoji2:1.0.0] /home/vishal/.gradle/caches/transforms-3/b6fe4da57007a43d86a66ba4c66459bd/transformed/jetified-emoji2-1.0.0/AndroidManifest.xml:30:13-31
	android:authorities
		ADDED from [androidx.emoji2:emoji2:1.0.0] /home/vishal/.gradle/caches/transforms-3/b6fe4da57007a43d86a66ba4c66459bd/transformed/jetified-emoji2-1.0.0/AndroidManifest.xml:28:13-68
	android:exported
		ADDED from [androidx.emoji2:emoji2:1.0.0] /home/vishal/.gradle/caches/transforms-3/b6fe4da57007a43d86a66ba4c66459bd/transformed/jetified-emoji2-1.0.0/AndroidManifest.xml:29:13-37
	android:name
		ADDED from [androidx.emoji2:emoji2:1.0.0] /home/vishal/.gradle/caches/transforms-3/b6fe4da57007a43d86a66ba4c66459bd/transformed/jetified-emoji2-1.0.0/AndroidManifest.xml:27:13-67
meta-data#androidx.emoji2.text.EmojiCompatInitializer
ADDED from [androidx.emoji2:emoji2:1.0.0] /home/vishal/.gradle/caches/transforms-3/b6fe4da57007a43d86a66ba4c66459bd/transformed/jetified-emoji2-1.0.0/AndroidManifest.xml:31:13-33:52
	android:value
		ADDED from [androidx.emoji2:emoji2:1.0.0] /home/vishal/.gradle/caches/transforms-3/b6fe4da57007a43d86a66ba4c66459bd/transformed/jetified-emoji2-1.0.0/AndroidManifest.xml:33:17-49
	android:name
		ADDED from [androidx.emoji2:emoji2:1.0.0] /home/vishal/.gradle/caches/transforms-3/b6fe4da57007a43d86a66ba4c66459bd/transformed/jetified-emoji2-1.0.0/AndroidManifest.xml:32:17-75
meta-data#androidx.lifecycle.ProcessLifecycleInitializer
ADDED from [androidx.lifecycle:lifecycle-process:2.4.0] /home/vishal/.gradle/caches/transforms-3/bc74a39e1ea23fea00bfcf2682a93948/transformed/jetified-lifecycle-process-2.4.0/AndroidManifest.xml:31:13-33:52
	android:value
		ADDED from [androidx.lifecycle:lifecycle-process:2.4.0] /home/vishal/.gradle/caches/transforms-3/bc74a39e1ea23fea00bfcf2682a93948/transformed/jetified-lifecycle-process-2.4.0/AndroidManifest.xml:33:17-49
	android:name
		ADDED from [androidx.lifecycle:lifecycle-process:2.4.0] /home/vishal/.gradle/caches/transforms-3/bc74a39e1ea23fea00bfcf2682a93948/transformed/jetified-lifecycle-process-2.4.0/AndroidManifest.xml:32:17-78
uses-permission#com.google.android.finsky.permission.BIND_GET_INSTALL_REFERRER_SERVICE
ADDED from [com.android.installreferrer:installreferrer:1.1.2] /home/vishal/.gradle/caches/transforms-3/318328e3183509abffbee01fc4efd067/transformed/jetified-installreferrer-1.1.2/AndroidManifest.xml:9:5-110
	android:name
		ADDED from [com.android.installreferrer:installreferrer:1.1.2] /home/vishal/.gradle/caches/transforms-3/318328e3183509abffbee01fc4efd067/transformed/jetified-installreferrer-1.1.2/AndroidManifest.xml:9:22-107
